Year,Number-of-Households
800,14
801,15
802,15
803,16
804,19
805,19
806,21
807,23
808,23
809,21
810,21
811,21
812,20
813,19
814,18
815,18
816,18
817,19
818,20
819,21
820,18
821,18
822,19
823,19
824,19
825,20
826,19
827,19
828,18
829,19
830,21
831,21
832,23
833,23
834,23
835,23
836,22
837,22
838,21
839,20
840,19
841,19
842,18
843,18
844,18
845,19
846,17
847,17
848,18
849,19
850,19
851,18
852,18
853,18
854,19
855,19
856,19
857,19
858,21
859,23
860,22
861,21
862,18
863,17
864,16
865,16
866,15
867,14
868,14
869,14
870,15
871,16
872,17
873,18
874,18
875,18
876,17
877,16
878,18
879,18
880,19
881,19
882,18
883,20
884,18
885,17
886,17
887,17
888,16
889,15
890,15
891,14
892,14
893,13
894,14
895,14
896,14
897,15
898,16
899,15
900,16
901,16
902,16
903,19
904,19
905,19
906,17
907,15
908,15
909,15
910,14
911,14
912,13
913,13
914,13
915,13
916,13
917,13
918,13
919,12
920,12
921,13
922,14
923,14
924,16
925,14
926,16
927,15
928,14
929,14
930,12
931,13
932,14
933,15
934,15
935,15
936,14
937,12
938,12
939,12
940,13
941,13
942,12
943,12
944,13
945,13
946,14
947,14
948,16
949,16
950,19
951,19
952,19
953,19
954,21
955,19
956,18
957,19
958,18
959,18
960,19
961,19
962,18
963,17
964,16
965,16
966,15
967,15
968,16
969,17
970,13
971,13
972,14
973,14
974,15
975,13
976,12
977,13
978,12
979,11
980,11
981,11
982,11
983,9
984,8
985,7
986,6
987,6
988,6
989,5
990,4
991,4
992,4
993,4
994,5
995,5
996,4
997,5
998,5
999,5
1000,4
1001,4
1002,3
1003,3
1004,3
1005,3
1006,2
1007,2
1008,2
1009,2
1010,2
1011,2
1012,2
1013,2
1014,3
1015,4
1016,4
1017,4
1018,4
1019,4
1020,5
1021,4
1022,4
1023,4
1024,4
1025,4
1026,4
1027,4
1028,4
1029,4
1030,4
1031,4
1032,3
1033,4
1034,4
1035,4
1036,4
1037,4
1038,4
1039,5
1040,5
1041,5
1042,5
1043,5
1044,5
1045,6
1046,5
1047,5
1048,5
1049,4
1050,4
1051,4
1052,4
1053,4
1054,4
1055,4
1056,4
1057,4
1058,4
1059,4
1060,4
1061,4
1062,4
1063,4
1064,4
1065,5
1066,4
1067,5
1068,5
1069,5
1070,4
1071,4
1072,4
1073,4
1074,5
1075,5
1076,5
1077,5
1078,5
1079,5
1080,4
1081,4
1082,4
1083,4
1084,4
1085,5
1086,4
1087,4
1088,5
1089,5
1090,5
1091,5
1092,6
1093,7
1094,8
1095,9
1096,9
1097,9
1098,9
1099,8
1100,8
1101,7
1102,7
1103,8
1104,8
1105,8
1106,8
1107,8
1108,8
1109,8
1110,8
1111,8
1112,11
1113,11
1114,12
1115,13
1116,13
1117,14
1118,13
1119,13
1120,14
1121,12
1122,11
1123,11
1124,8
1125,9
1126,9
1127,9
1128,9
1129,9
1130,9
1131,8
1132,8
1133,9
1134,9
1135,10
1136,10
1137,11
1138,11
1139,12
1140,13
1141,16
1142,16
1143,16
1144,15
1145,15
1146,15
1147,15
1148,16
1149,15
1150,13
1151,13
1152,13
1153,13
1154,13
1155,13
1156,13
1157,13
1158,13
1159,14
1160,15
1161,16
1162,14
1163,15
1164,17
1165,17
1166,17
1167,16
1168,16
1169,16
1170,15
1171,14
1172,15
1173,15
1174,15
1175,15
1176,15
1177,12
1178,12
1179,12
1180,12
1181,12
1182,12
1183,12
1184,13
1185,14
1186,16
1187,18
1188,18
1189,18
1190,20
1191,20
1192,20
1193,19
1194,18
1195,17
1196,18
1197,19
1198,17
1199,15
1200,16
1201,17
1202,17
1203,17
1204,17
1205,18
1206,18
1207,18
1208,18
1209,18
1210,20
1211,20
1212,20
1213,19
1214,19
1215,21
1216,20
1217,18
1218,16
1219,16
1220,16
1221,17
1222,17
1223,18
1224,19
1225,18
1226,19
1227,18
1228,17
1229,18
1230,17
1231,17
1232,17
1233,17
1234,16
1235,17
1236,19
1237,19
1238,20
1239,18
1240,16
1241,15
1242,15
1243,16
1244,18
1245,18
1246,19
1247,21
1248,21
1249,21
1250,21
1251,20
1252,20
1253,22
1254,24
1255,24
1256,24
1257,26
1258,25
1259,24
1260,25
1261,25
1262,24
1263,25
1264,26
1265,25
1266,26
1267,26
1268,28
1269,29
1270,30
1271,30
1272,30
1273,27
1274,28
1275,27
1276,27
1277,28
1278,28
1279,25
1280,30
1281,32
1282,33
1283,33
1284,33
1285,34
1286,33
1287,35
1288,34
1289,36
1290,34
1291,33
1292,33
1293,33
1294,34
1295,32
1296,32
1297,33
1298,32
1299,33
1300,33
1301,32
1302,31
1303,30
1304,31
1305,31
1306,32
1307,34
1308,33
1309,33
1310,32
1311,38
1312,36
1313,36
1314,35
1315,36
1316,36
1317,34
1318,34
1319,34
1320,34
1321,34
1322,32
1323,32
1324,32
1325,31
1326,33
1327,35
1328,37
1329,38
1330,38
1331,36
1332,38
1333,37
1334,37
1335,29
1336,28
1337,27
1338,27
1339,19
1340,20
1341,20
1342,20
1343,20
1344,22
1345,23
1346,21
1347,22
1348,23
1349,22
1350,23
