"year","general","north","mid","natural","upland","kinbiko"
800,3.868,0,0,3.868,3.868,0
801,-0.8,0,0,-0.8,-0.8,0
802,-0.3,0,0,-0.3,-0.3,0
803,4.214,0,0,4.214,4.214,0
804,3.02,0,0,3.02,3.02,0
805,1.8379999,0,0,1.8379999,1.8379999,0
806,-1.8379999,0,0,-1.8379999,-1.8379999,0
807,-0.267,0,0,-0.267,-0.267,0
808,-4.7799997,0,0,-4.7799997,-4.7799997,0
809,-4.064,0,0,-4.064,-4.064,0
810,2.754,0,0,2.754,2.754,0
811,-0.094000004,0,0,-0.094000004,-0.094000004,0
812,-0.84400004,0,0,-0.84400004,-0.84400004,0
813,0.511,0,0,0.511,0.511,0
814,1.31,0,0,1.31,1.31,0
815,-1.138,0,0,-1.138,-1.138,0
816,-1.8489999,0,0,-1.8489999,-1.8489999,0
817,-3.492,0,0,-3.492,-3.492,0
818,-1.621,0,0,-1.621,-1.621,0
819,-2.6369998,0,0,-2.6369998,-2.6369998,0
820,2.609,0,0,2.609,2.609,0
821,6.9340005,0,0,6.9340005,6.9340005,0
822,4.613,0,0,4.613,4.613,0
823,-4.752,0,0,-4.752,-4.752,0
824,-0.91599995,0,0,-0.91599995,-0.91599995,0
825,-2.9650002,0,0,-2.9650002,-2.9650002,0
826,1.8039999,0,0,1.8039999,1.8039999,0
827,-2.9090002,0,0,-2.9090002,-2.9090002,0
828,-0.29400003,0,0,-0.29400003,-0.29400003,0
829,-1.877,0,0,-1.877,-1.877,0
830,-3.559,0,0,-3.559,-3.559,0
831,2.876,0,0,2.876,2.876,0
832,1.9599999,0,0,1.9599999,1.9599999,0
833,0.661,0,0,0.661,0.661,0
834,-1.138,0,0,-1.138,-1.138,0
835,-3.77,0,0,-3.77,-3.77,0
836,3.747,0,0,3.747,3.747,0
837,-1.921,0,0,-1.921,-1.921,0
838,1.999,0,0,1.999,1.999,0
839,-0.33900002,0,0,-0.33900002,-0.33900002,0
840,-4.2799997,0,0,-4.2799997,-4.2799997,0
841,-0.516,0,0,-0.516,-0.516,0
842,-1.299,0,0,-1.299,-1.299,0
843,0.805,0,0,0.805,0.805,0
844,-1.538,0,0,-1.538,-1.538,0
845,0.278,0,0,0.278,0.278,0
846,-0.65000004,0,0,-0.65000004,-0.65000004,0
847,-2.498,0,0,-2.498,-2.498,0
848,0.33900002,0,0,0.33900002,0.33900002,0
849,-0.733,0,0,-0.733,-0.733,0
850,0.561,0,0,0.561,0.561,0
851,-2.232,0,0,-2.232,-2.232,0
852,2.903,0,0,2.903,2.903,0
853,-1.155,0,0,-1.155,-1.155,0
854,1.527,0,0,1.527,1.527,0
855,-0.32200003,0,0,-0.32200003,-0.32200003,0
856,4.136,0,0,4.136,4.136,0
857,-2.1369998,0,0,-2.1369998,-2.1369998,0
858,3.053,0,0,3.053,3.053,0
859,-1.56,0,0,-1.56,-1.56,0
860,0.228,0,0,0.228,0.228,0
861,1.9599999,0,0,1.9599999,1.9599999,0
862,2.759,0,0,2.759,2.759,0
863,-1.677,0,0,-1.677,-1.677,0
864,-0.533,0,0,-0.533,-0.533,0
865,-0.52199996,0,0,-0.52199996,-0.52199996,0
866,0.416,0,0,0.416,0.416,0
867,-2.559,0,0,-2.559,-2.559,0
868,-0.478,0,0,-0.478,-0.478,0
869,1.51,0,0,1.51,1.51,0
870,-1.999,0,0,-1.999,-1.999,0
871,-0.69400007,0,0,-0.69400007,-0.69400007,0
872,-0.927,0,0,-0.927,-0.927,0
873,-1.915,0,0,-1.915,-1.915,0
874,-2.509,0,0,-2.509,-2.509,0
875,-2.8979998,0,0,-2.8979998,-2.8979998,0
876,1.099,0,0,1.099,1.099,0
877,-1.555,0,0,-1.555,-1.555,0
878,-2.6039999,0,0,-2.6039999,-2.6039999,0
879,-1.26,0,0,-1.26,-1.26,0
880,-1.81,0,0,-1.81,-1.81,0
881,1.132,0,0,1.132,1.132,0
882,-0.29400003,0,0,-0.29400003,-0.29400003,0
883,-2.182,0,0,-2.182,-2.182,0
884,-1.821,0,0,-1.821,-1.821,0
885,-0.32200003,0,0,-0.32200003,-0.32200003,0
886,-0.32200003,0,0,-0.32200003,-0.32200003,0
887,-0.861,0,0,-0.861,-0.861,0
888,-0.1,0,0,-0.1,-0.1,0
889,-0.67700005,0,0,-0.67700005,-0.67700005,0
890,0.272,0,0,0.272,0.272,0
891,-2.365,0,0,-2.365,-2.365,0
892,-2.143,0,0,-2.143,-2.143,0
893,1.9760001,0,0,1.9760001,1.9760001,0
894,0.228,0,0,0.228,0.228,0
895,0.672,0,0,0.672,0.672,0
896,1.888,0,0,1.888,1.888,0
897,2.1479998,0,0,2.1479998,2.1479998,0
898,0.838,0,0,0.838,0.838,0
899,1.499,0,0,1.499,1.499,0
900,-2.437,0,0,-2.437,-2.437,0
901,-2.5479999,0,0,-2.5479999,-2.5479999,0
902,0.3,0,0,0.3,0.3,0
903,-2.1869998,0,0,-2.1869998,-2.1869998,0
904,-3.203,0,0,-3.203,-3.203,0
905,1.3549999,0,0,1.3549999,1.3549999,0
906,-2.243,0,0,-2.243,-2.243,0
907,-3.37,0,0,-3.37,-3.37,0
908,3.003,0,0,3.003,3.003,0
909,0.2,0,0,0.2,0.2,0
910,-1.238,0,0,-1.238,-1.238,0
911,1.765,0,0,1.765,1.765,0
912,-0.62700003,0,0,-0.62700003,-0.62700003,0
913,1.4489999,0,0,1.4489999,1.4489999,0
914,-0.072,0,0,-0.072,-0.072,0
915,0.805,0,0,0.805,0.805,0
916,-0.139,0,0,-0.139,-0.139,0
917,2.92,0,0,2.92,2.92,0
918,1.416,0,0,1.416,1.416,0
919,0.377,0,0,0.377,0.377,0
920,-4.2469997,0,0,-4.2469997,-4.2469997,0
921,1.0710001,0,0,1.0710001,1.0710001,0
922,-0.733,0,0,-0.733,-0.733,0
923,-1.7770001,0,0,-1.7770001,-1.7770001,0
924,-3.2979999,0,0,-3.2979999,-3.2979999,0
925,1.682,0,0,1.682,1.682,0
926,3.3479998,0,0,3.3479998,3.3479998,0
927,0.561,0,0,0.561,0.561,0
928,2.271,0,0,2.271,2.271,0
929,1.033,0,0,1.033,1.033,0
930,-3.992,0,0,-3.992,-3.992,0
931,1.405,0,0,1.405,1.405,0
932,0.155,0,0,0.155,0.155,0
933,0.65500003,0,0,0.65500003,0.65500003,0
934,-0.18300001,0,0,-0.18300001,-0.18300001,0
935,-3.004,0,0,-3.004,-3.004,0
936,0.988,0,0,0.988,0.988,0
937,-1.3939999,0,0,-1.3939999,-1.3939999,0
938,2.47,0,0,2.47,2.47,0
939,-1.26,0,0,-1.26,-1.26,0
940,0.32700002,0,0,0.32700002,0.32700002,0
941,-0.072,0,0,-0.072,-0.072,0
942,1.31,0,0,1.31,1.31,0
943,-2.1929998,0,0,-2.1929998,-2.1929998,0
944,-0.91599995,0,0,-0.91599995,-0.91599995,0
945,1.41,0,0,1.41,1.41,0
946,1.443,0,0,1.443,1.443,0
947,1.116,0,0,1.116,1.116,0
948,0.33900002,0,0,0.33900002,0.33900002,0
949,2.026,0,0,2.026,2.026,0
950,1.5539999,0,0,1.5539999,1.5539999,0
951,-4.147,0,0,-4.147,-4.147,0
952,1.593,0,0,1.593,1.593,0
953,1.305,0,0,1.305,1.305,0
954,-4.3190002,0,0,-4.3190002,-4.3190002,0
955,-0.472,0,0,-0.472,-0.472,0
956,1.021,0,0,1.021,1.021,0
957,-2.526,0,0,-2.526,-2.526,0
958,-0.117,0,0,-0.117,-0.117,0
959,0.289,0,0,0.289,0.289,0
960,2.6979997,0,0,2.6979997,2.6979997,0
961,-0.639,0,0,-0.639,-0.639,0
962,0.566,0,0,0.566,0.566,0
963,-0.683,0,0,-0.683,-0.683,0
964,-2.443,0,0,-2.443,-2.443,0
965,-0.42200002,0,0,-0.42200002,-0.42200002,0
966,3.103,0,0,3.103,3.103,0
967,-1.2770001,0,0,-1.2770001,-1.2770001,0
968,-4.408,0,0,-4.408,-4.408,0
969,-2.232,0,0,-2.232,-2.232,0
970,1.0710001,2,0,1.0710001,1.0710001,2
971,1.199,2,0,1.199,1.199,2
972,-3.586,2,0,-3.586,-3.586,2
973,5.979,2,0,5.979,5.979,2
974,-0.672,2,2,-0.672,-0.672,2
975,-2.332,2,2,-2.332,-2.332,2
976,-1.582,2,2,-1.582,-1.582,2
977,1.732,2,2,1.732,1.732,2
978,-2.532,2,2,-2.532,-2.532,2
979,-0.555,2,2,-0.555,-0.555,2
980,-5.507,2,2,-5.507,-5.507,2
981,-3.4420002,2,2,-3.4420002,-3.4420002,2
982,1.9489999,2,2,1.9489999,1.9489999,2
983,-2.221,2,2,-2.221,-2.221,2
984,-1.915,2,2,-1.915,-1.915,2
985,1.194,2,2,1.194,1.194,2
986,1.477,2,2,1.477,1.477,2
987,4.613,2,2,4.613,4.613,2
988,5.829,2,2,5.829,5.829,2
989,8.033,2,2,8.033,8.033,2
990,-1.4269999,2,2,-1.4269999,-1.4269999,2
991,-5.2019997,2,2,-5.2019997,-5.2019997,2
992,-2.537,2,2,-2.537,-2.537,2
993,-2.92,2,2,-2.92,-2.92,2
994,4,2,2,2,2,2
995,4,2,2,2,2,2
996,4,2,2,2,2,2
997,4,2,2,2,2,2
998,4,2,2,2,2,2
999,4,2,2,2,2,2
1000,4,2,2,2,2,2
1001,4,2,2,2,2,2
1002,4,2,2,2,2,2
1003,4,2,2,2,2,2
1004,4,2,2,2,2,2
1005,4,2,2,2,2,2
1006,4,2,2,2,2,2
1007,4,2,2,2,2,2
1008,4,2,2,2,2,2
1009,4,2,2,2,2,2
1010,4,2,2,2,2,2
1011,4,2,2,2,2,2
1012,4,2,2,2,2,2
1013,4,2,2,2,2,2
1014,4,2,2,2,2,2
1015,4,2,2,2,2,2
1016,4,2,2,2,2,2
1017,4,2,2,2,2,2
1018,4,2,2,2,2,2
1019,4,2,4,2,2,2
1020,4,2,4,2,2,2
1021,4,2,4,2,2,2
1022,4,2,4,2,2,2
1023,4,2,4,2,2,2
1024,4,2,4,2,2,2
1025,4,2,4,2,2,2
1026,4,2,4,2,2,2
1027,4,2,4,2,2,2
1028,4,2,4,2,2,2
1029,4,2,4,2,2,2
1030,4,2,4,2,2,2
1031,4,4,4,2,2,4
1032,4,4,4,2,2,4
1033,4,4,4,2,2,4
1034,4,4,4,2,2,4
1035,4,4,4,2,2,4
1036,4,4,4,2,2,4
1037,4,4,4,2,2,4
1038,4,4,4,2,2,4
1039,4,4,4,2,2,4
1040,4,4,4,2,2,4
1041,4,4,4,2,2,4
1042,4,4,4,2,2,4
1043,4,4,4,2,2,4
1044,4,4,4,2,2,4
1045,4,4,4,2,2,4
1046,4,4,4,2,2,4
1047,4,4,4,2,2,4
1048,4,4,4,2,2,4
1049,4,4,4,2,2,4
1050,4,4,4,2,2,4
1051,4,4,4,2,2,4
1052,4,4,4,2,2,4
1053,4,4,4,2,2,4
1054,4,4,4,2,2,4
1055,4,4,4,2,2,4
1056,4,4,4,2,2,4
1057,4,4,4,2,2,4
1058,4,4,4,2,2,4
1059,4,4,4,2,2,4
1060,4,4,4,2,2,4
1061,4,4,4,2,2,4
1062,4,4,4,2,2,4
1063,4,4,4,2,2,4
1064,4,4,4,2,2,4
1065,4,4,4,2,2,4
1066,4,4,4,2,2,4
1067,4,4,4,2,2,4
1068,4,4,4,2,2,4
1069,4,4,4,2,2,4
1070,4,4,4,2,2,4
1071,4,4,4,2,2,4
1072,4,4,4,2,2,4
1073,4,4,4,2,2,4
1074,4,4,4,2,2,4
1075,4,4,4,2,2,4
1076,4,4,4,2,2,4
1077,4,4,4,2,2,4
1078,4,4,4,2,2,4
1079,4,4,4,2,2,4
1080,4,4,4,2,2,4
1081,4,4,4,2,2,4
1082,4,4,4,2,2,4
1083,4,4,4,2,2,4
1084,4,4,4,2,2,4
1085,4,4,4,2,2,4
1086,4,4,4,2,2,4
1087,4,4,4,2,2,4
1088,4,4,4,2,2,4
1089,4,4,4,2,2,4
1090,4,4,4,2,2,4
1091,4,4,4,2,2,4
1092,4,4,4,2,2,4
1093,4,4,4,2,2,4
1094,4,4,4,2,2,4
1095,4,4,4,2,2,4
1096,4,4,4,2,2,4
1097,4,4,4,2,2,4
1098,4,4,4,2,2,4
1099,4,4,4,2,2,4
1100,4,4,4,2,2,4
1101,4,4,4,2,2,4
1102,4,4,4,2,2,4
1103,4,4,4,2,2,4
1104,4,4,4,2,2,4
1105,4,4,4,2,2,4
1106,4,4,4,2,2,4
1107,4,4,4,2,2,4
1108,4,4,4,2,2,4
1109,4,4,4,2,2,4
1110,4,4,4,2,2,4
1111,4,4,4,2,2,4
1112,4,4,4,2,2,4
1113,4,4,4,2,2,4
1114,4,4,4,2,2,4
1115,4,4,4,2,2,4
1116,4,4,4,2,2,4
1117,4,4,4,2,2,4
1118,4,4,4,2,2,4
1119,4,4,4,2,2,4
1120,4,4,4,2,2,4
1121,4,4,4,2,2,4
1122,4,4,4,2,2,4
1123,4,4,4,2,2,4
1124,4,4,4,2,2,4
1125,4,4,4,2,2,4
1126,4,4,4,2,2,4
1127,4,4,4,2,2,4
1128,2,4,4,4.236,4.236,4
1129,2,4,4,6.584,6.584,4
1130,2,2,4,1.3319999,1.3319999,2
1131,2,2,4,-5.852,-5.852,2
1132,2,2,4,-2.1709998,-2.1709998,2
1133,2,2,4,-1.799,-1.799,2
1134,2,2,4,-0.46600002,-0.46600002,2
1135,2,2,4,-0.46600002,-0.46600002,2
1136,2,2,4,0.82199997,0.82199997,2
1137,2,2,4,-2.8309999,-2.8309999,2
1138,2,2,4,-2.265,-2.265,2
1139,2,2,4,1.8539999,1.8539999,2
1140,2,2,4,-2.315,-2.315,2
1141,2,2,4,-1.6710001,-1.6710001,2
1142,2,2,4,0.84900004,0.84900004,2
1143,2,2,4,-2.165,-2.165,2
1144,2,2,4,-1.699,-1.699,2
1145,2,2,4,-0.144,-0.144,2
1146,2,2,4,-3.42,-3.42,2
1147,2,2,4,-0.39400002,-0.39400002,2
1148,2,2,4,-1.371,-1.371,2
1149,2,2,4,-1.3659999,-1.3659999,2
1150,2,2,4,-4.38,-4.38,2
1151,2,2,4,-1.371,-1.371,2
1152,2,2,4,0.255,0.255,2
1153,2,2,4,-0.283,-0.283,2
1154,2,2,4,-1.6930001,-1.6930001,2
1155,2,2,4,0.172,0.172,2
1156,2,2,4,-2.82,-2.82,2
1157,2,2,4,0.52199996,0.52199996,2
1158,2,2,4,-3.809,-3.809,2
1159,2,2,4,-0.072,-0.072,2
1160,2,4,4,1.132,1.132,4
1161,2,4,4,-2.276,-2.276,4
1162,2,4,4,0.117,0.117,4
1163,2,4,4,1.543,1.543,4
1164,2,4,4,-3.5479999,-3.5479999,4
1165,2,4,4,1.915,1.915,4
1166,2,4,4,-1.532,-1.532,4
1167,2,4,4,2.2150002,2.2150002,4
1168,2,4,4,-0.92199993,-0.92199993,4
1169,2,4,4,-4.308,-4.308,4
1170,4,4,4,2,2,4
1171,4,4,4,2,2,4
1172,4,4,4,2,2,4
1173,4,4,4,2,2,4
1174,4,4,4,2,2,4
1175,4,4,4,2,2,4
1176,4,4,4,2,2,4
1177,4,4,4,2,2,4
1178,4,4,4,2,2,4
1179,4,4,4,2,2,4
1180,4,4,4,2,2,4
1181,4,4,4,2,2,4
1182,4,4,4,2,2,4
1183,4,4,4,2,2,4
1184,4,4,4,2,2,4
1185,4,4,4,2,2,4
1186,4,4,4,2,2,4
1187,4,4,4,2,2,4
1188,4,4,4,2,2,4
1189,4,4,4,2,2,4
1190,4,4,4,2,2,4
1191,4,4,4,2,2,4
1192,4,4,4,2,2,4
1193,4,4,4,2,2,4
1194,4,4,4,2,2,4
1195,4,4,4,2,2,4
1196,4,4,4,2,2,4
1197,4,4,4,2,2,4
1198,4,4,4,2,2,4
1199,4,4,4,2,2,4
1200,4,4,4,2,2,4
1201,4,4,4,2,2,4
1202,4,4,4,2,2,4
1203,4,4,4,2,2,4
1204,4,4,4,2,2,4
1205,4,4,4,2,2,4
1206,4,4,4,2,2,4
1207,4,4,4,2,2,4
1208,4,4,4,2,2,4
1209,4,4,4,2,2,4
1210,4,4,4,2,2,4
1211,4,4,4,2,2,4
1212,4,4,4,2,2,4
1213,4,4,4,2,2,4
1214,4,4,4,2,2,4
1215,4,4,4,2,2,4
1216,4,4,4,2,2,4
1217,4,4,4,2,2,4
1218,4,4,4,2,2,4
1219,4,4,4,2,2,4
1220,4,4,4,2,2,4
1221,4,4,4,2,2,4
1222,4,4,4,2,2,4
1223,4,4,4,2,2,4
1224,4,4,4,2,2,4
1225,4,4,4,2,2,4
1226,4,4,4,2,2,4
1227,4,4,4,2,2,4
1228,4,4,4,2,2,4
1229,4,4,4,2,2,4
1230,4,4,4,2,2,4
1231,4,4,4,2,2,4
1232,4,4,4,2,2,4
1233,4,4,4,2,2,4
1234,4,4,4,2,2,4
1235,4,4,4,2,2,4
1236,4,4,4,2,2,4
1237,4,4,4,2,2,4
1238,4,4,4,2,2,4
1239,4,4,4,2,2,4
1240,4,4,4,2,2,4
1241,4,4,4,2,2,4
1242,4,4,4,2,2,4
1243,4,4,4,2,2,4
1244,4,4,4,2,2,4
1245,4,4,4,2,2,4
1246,4,4,4,2,2,4
1247,4,4,4,2,2,4
1248,4,4,4,2,2,4
1249,4,4,4,2,2,4
1250,4,4,4,2,2,4
1251,4,4,4,2,2,4
1252,4,4,4,2,2,4
1253,4,4,4,2,2,4
1254,4,4,4,2,2,4
1255,4,4,4,2,2,4
1256,4,4,4,2,2,4
1257,4,4,4,2,2,4
1258,4,4,4,2,2,4
1259,4,2,4,2,2,2
1260,4,2,4,2,2,2
1261,4,2,4,2,2,2
1262,4,2,4,2,2,2
1263,4,2,4,2,2,2
1264,4,2,4,2,2,2
1265,0.49400002,2,4,0.49400002,0.49400002,2
1266,-2.043,2,4,-2.043,-2.043,2
1267,1.416,2,4,1.416,1.416,2
1268,0.344,2,4,0.344,0.344,2
1269,0.372,2,2,0.372,0.372,2
1270,-0.33900002,2,2,-0.33900002,-0.33900002,2
1271,1.876,2,2,1.876,1.876,2
1272,0.638,2,2,0.638,0.638,2
1273,-0.91099995,2,2,-0.91099995,-0.91099995,2
1274,-1.516,2,2,-1.516,-1.516,2
1275,1.999,2,2,1.999,1.999,2
1276,-4.308,2,2,-4.308,-4.308,2
1277,-1.643,2,2,-1.643,-1.643,2
1278,-3.62,2,2,-3.62,-3.62,2
1279,1.194,2,2,1.194,1.194,2
1280,-3.592,2,2,-3.592,-3.592,2
1281,-2.365,2,2,-2.365,-2.365,2
1282,-2.082,2,2,-2.082,-2.082,2
1283,-1.8149999,2,2,-1.8149999,-1.8149999,2
1284,2.049,2,2,2.049,2.049,2
1285,-1.027,2,2,-1.027,-1.027,2
1286,0.028,2,2,0.028,0.028,2
1287,-2.093,2,2,-2.093,-2.093,2
1288,-3.525,2,2,-3.525,-3.525,2
1289,-1.8429999,2,2,-1.8429999,-1.8429999,2
1290,1.132,2,2,1.132,1.132,2
1291,-0.805,2,2,-0.805,-0.805,2
1292,-1.038,2,2,-1.038,-1.038,2
1293,-1.2880001,2,2,-1.2880001,-1.2880001,2
1294,0.117,2,2,0.117,0.117,2
1295,-0.761,2,2,-0.761,-0.761,2
1296,0.36600003,2,2,0.36600003,0.36600003,2
1297,-2.793,2,2,-2.793,-2.793,2
1298,3.386,2,2,3.386,3.386,2
1299,-4.63,2,2,-4.63,-4.63,2
1300,0.139,2,2,0.139,0.139,2
1301,-0.1,2,2,-0.1,-0.1,2
1302,0.155,2,2,0.155,0.155,2
1303,2.182,2,0,2.182,2.182,2
1304,2.5479999,2,0,2.5479999,2.5479999,2
1305,1.4489999,2,0,1.4489999,1.4489999,2
1306,-1.055,2,0,-1.055,-1.055,2
1307,-4.986,2,0,-4.986,-4.986,2
1308,-2.1369998,2,0,-2.1369998,-2.1369998,2
1309,4.619,2,0,4.619,4.619,2
1310,2.72,2,0,2.72,2.72,2
1311,-1.4319999,2,0,-1.4319999,-1.4319999,2
1312,4.025,2,0,4.025,4.025,2
1313,4.641,2,0,4.641,4.641,2
1314,0.089,2,0,0.089,0.089,2
1315,-4.3580003,2,0,-4.3580003,-4.3580003,2
1316,-5.3350005,2,0,-5.3350005,-5.3350005,2
1317,-0.48900002,2,0,-0.48900002,-0.48900002,2
1318,-0.022,2,0,-0.022,-0.022,2
1319,1.9539999,2,0,1.9539999,1.9539999,2
1320,1.8429999,2,0,1.8429999,1.8429999,2
1321,2.7150002,2,0,2.7150002,2.7150002,2
1322,-2.809,2,0,-2.809,-2.809,2
1323,-3.203,2,0,-3.203,-3.203,2
1324,-1.2770001,2,0,-1.2770001,-1.2770001,2
1325,3.731,2,0,3.731,3.731,2
1326,2.987,2,0,2.987,2.987,2
1327,-1.2710001,2,0,-1.2710001,-1.2710001,2
1328,-1.91,2,0,-1.91,-1.91,2
1329,-2.565,2,0,-2.565,-2.565,2
1330,5.441,0,0,5.441,5.441,0
1331,4.3250003,0,0,4.3250003,4.3250003,0
1332,1.9649999,0,0,1.9649999,1.9649999,0
1333,-0.205,0,0,-0.205,-0.205,0
1334,0.605,0,0,0.605,0.605,0
1335,-5.591,0,0,-5.591,-5.591,0
1336,5.069,0,0,5.069,5.069,0
1337,4.464,0,0,4.464,4.464,0
1338,-1.8599999,0,0,-1.8599999,-1.8599999,0
1339,-2.049,0,0,-2.049,-2.049,0
1340,-0.983,0,0,-0.983,-0.983,0
1341,0.633,0,0,0.633,0.633,0
1342,-2.243,0,0,-2.243,-2.243,0
1343,-0.272,0,0,-0.272,-0.272,0
1344,0.81,0,0,0.81,0.81,0
1345,2.021,0,0,2.021,2.021,0
1346,1.066,0,0,1.066,1.066,0
1347,-1.621,0,0,-1.621,-1.621,0
1348,-1.5489999,0,0,-1.5489999,-1.5489999,0
1349,0.638,0,0,0.638,0.638,0
1350,-3.292,0,0,-3.292,-3.292,0
